{
	"name": "addsshkey",
	"text": "Add an SSH key pair from files in block\\nFor user: %1",
	"script": "addsshkey.sh",
    "args": [
		{
			"type": "menu",
			"options": ["pi", "root"]
		}
    ],
	"network": false,
	"continue": true,
	"type": "setting",
	"category":"setting",
	"supportedOperatingSystems": [
		"raspbian-pibakery.img",
		"raspbian-lite-pibakery.img"
	],
	"shortDescription":"Add SSH key pair for user.",
	"longDescription":"To use this module you must include an SSH key pair in this blocks folder. The file 'private_key' will be copied to /home/{user}/.ssh/id_rsa and 'public_key.pub' will be copied to /home/{user}/.ssh/id_rsa.pub"
}
